{    
	"exist_langs" : "uk",
    "grinvich_plus" : "+0300",
    "webMaster" : "koliart@ukr.net",
    "routine" : "Templ1",
    "need_tables_adm" : ["user_passw", "illustrations", "documents", "media", "user", "rubric", "comments_artcl",
                         "search", "archive_menu", "rss_setting", "rss_data"],
    "need_tables_main" : ["level0-level", "main-main"],
	"languages" : ["uk", "en", "ru"],
    "static_path" : "/my_blog/public",
    "img_path" : "/img",
    "rss_articles_path" : "public/feed/articles-feed.rdf",
    "rss_comments_path" : "public/feed/comments-feed.rdf",
    "tables_of_upload" : ["illustrations", "documents", "media"],
    "type_of_upload_keys" : ["img", "doc", "med"],
    "path_upload_keys" : ["illustration_path", "document_path", "media_path"],
    "type_of_upload" : {"img" : "image", "doc" : "document", "med" : "media"},
    "template_for_type_upload" : {"img" : "upload_image", "doc" : "upload_document", "med" : "upload_media"},
    "path_upload_hash" : {"img" : "illustration_path", "doc" : "document_path", "med" : "media_path"},
    "style_upload_box" : {"img" : "img_block", "doc" : "doc_block", "med" : "med_block"},
    "add_rubric_required_fields" : ["rubric"],
    "comments_deep_levels" : ["2", "3", "4", "5"],
    "round_num_list" : ["2", "3", "4", "5", "6"],
    "outer_num_list" : ["1", "2"],
    "pagination_place" : ["bottom", "top_bottom"],
    "artcl_numb_rss" : ["3", "5", "8", "10", "13", "15", "17", "20"],
    
    "_rel_numb_items_of_address" : "визначення таблиці рівня в залежності від url в адресному рядку",
    "rel_numb_items_of_address" : {"0" : "level0", "2" : "level1", "3" : "level2"},
    
    "_image_thumbn_proper" : "variations of thumbnail classes",
    "thumb_img" : ["img-thumbnail", "img-rounded", "img-circle"],
    
    "table" :
    {
    "rubric" : "rubric",
    "users" : "user",
    "comments" : "comments_artcl",
    "search_artcl" : "search",
    "archive_menu" : "archive_menu",
    "rss_setting" : "rss_setting",
    "rss_data" : "rss_data"
    }, 
    "authorize_required_fields" :
        {
        "Templ1" : ["login", "pass"],
        "Templ2" : ["login", "pass"]
        },
    "comment_required_fields" :
        {
        "Templ1" : ["log_in", "passw", "response"],
        "Templ2" : [""]
        },
    "answer_required_fields" :
        {
        "Templ1" : ["answer"],
        "Templ2" : [""]
        },
	"block_color" : 
    {
    "level0" : "#E7E7E7", "level1" : "#D8D8D8", "level2" : "#C5C5C5"
    },
	"templates" : ["Templ1", "Templ2", "Templ3", "Templ4"],    
    "illustration_path" : "/illustration",
    "document_path" : "/document",
    "media_path" : "/media",
    
    "adm" :
    {
    "admin_lang" : "admin_lang",
    "language" : "interface_langs",
    "color_scheme" : "color_scheme",
    "routine" : "routine",
    "table" :
        {
        "Templ1" : {
                    "access" : {"name" : "user_passw", "columns" : ["user", "password", "email"]},
                    "register" : {"name" : "user", "columns" : ["login", "pass", "email"]}
                   }
        },
    "dbaccess_required_fields" :
        {
        "Templ1" : ["host", "dbname", "user", "pass"],
        "Templ2" : [""]
        },
    "admin_required_fields" :
        {
        "Templ1" : ["login", "pass"],
        "Templ2" : [""]
        },
    "registration_required_fields" :
        {
        "Templ1" : ["login", "pass", "email"],
        "Templ2" : ["login", "pass", "email"]
        },
    "main_create_required_fields" :
        {
        "Templ1" : ["title", "title_alias", "page_head"],
        "Templ2" : ["title", "title_alias", "page_head"]
        },
    "article_required_fields" :
        {
        "Templ1" : ["head", "description", "keywords"],
        "Templ2" : [""]
        },
    "rss_setting_required_fields" :
        {
        "Templ1" : ["title", "description"],
        "Templ2" : [""]
        },
    "edit_menu_required_fields_chapter" :
        {
        "Templ1" : ["new_title", "new_title_alias"],
        "Templ2" : ["new_title", "new_title_alias"]
        },
    "edit_menu_required_fields_subchapter" :
        {
        "Templ1" : ["new_title", "new_title_alias", "new_subtitle", "new_subtitle_alias"],
        "Templ2" : ["new_title", "new_title_alias"]
        }
    },
    
    "path_to_flag" :
    {
        "uk" : "/img/uk.jpg",
        "ru" : "/img/ru.jpg",
        "en" : "/img/en.jpg"
    },
    
    "path_to_icon" :
    {
        "doc"  : "/img/doc_icon.png",
        "docx" : "/img/docx_icon.png",
        "pdf"  : "/img/pdf_icon.png",
        "txt"  : "/img/text_icon.png",
        "avi" : "/img/avi_icon.png",
        "mp3" : "/img/mp3_icon.png",
        "mp4" : "/img/mp4_icon.png",
        "flv" : "/img/flv_icon.png"
    },
    
    "get_valid_format_func" :
    {
        "image" : "valid_img_format",
        "document" : "valid_doc_format",
        "media" : "valid_media_format"
    },
    "upload_populate_options" :
    {
        "upload_image" : {"action" : "illustr_for", "table" : "illustrations"},
        "upload_document" : {"action" : "documents_for", "table" : "documents"},
        "upload_media" : {"action" : "media_for", "table" : "media"}
    },
    
    "Templ1" :
    {
        "levels" : ["level0", "level1", "level2"],
        "max_level" : "level2",
        "article" :
        {
        "illustration_path" : "/Templ1/article/illustration",
        "document_path" : "/Templ1/article/document",
        "media_path" : "/Templ1/article/media"
        },
        "gallery" :
        {
        "illustration_path" : "/Templ1/gallery/illustration",
        "document_path" : "/Templ1/gallery/document",
        "media_path" : "/Templ1/gallery/media"
        }
    },
    
"routine_block" : "BEGIN==================================",
    "Templ1" : 
        {
         "layout_dir" : ""
        },
    "Templ2" : 
        {
         "layout_dir" : "templ2"
        },
"_end_of_routine_block" : "END=================================="
}
